{
  "defaultSeverity": "error",
  "extends": [
    "tslint:recommended"
  ],
  "jsRules": {},
  "rules": {
    "adjacent-overload-signatures": true,
    "member-access": [
      true,
      "check-accessor",
      "check-constructor"
    ],
    "member-ordering": [
      true,
      {
        "order": [
          "private-static-field",
          "protected-static-field",
          "public-static-field",
          "private-instance-field",
          "protected-instance-field",
          "public-instance-field",
          "private-constructor",
          "protected-constructor",
          "public-constructor",
          "private-static-method",
          "protected-static-method",
          "public-static-method"
        ]
      }
    ],
    "no-any": true,
    "only-arrow-functions": true,
    "promise-function-async": true,
    "await-promise": true,
    "curly": true,
    "no-conditional-assignment": true,
    "no-duplicate-super": true,
    "no-duplicate-switch-case": true,
    "no-duplicate-variable": true,
    "no-eval": true,
    "no-console": false,
    "no-floating-promises": true,
    "no-implicit-dependencies": true,
    "no-null-keyword": true,
    "no-string-literal": true,
    "no-string-throw": true,
    "no-this-assignment": true,
    "no-unbound-method": true,
    "no-unsafe-any": true,
    "no-var-keyword": true,
    "prefer-object-spread": true,
    "strict-type-predicates": true,
    "switch-default": true,
    "triple-equals": [
      true,
      "allow-undefined-check"
    ],
    "use-isnan": true,
    "deprecation": true,
    "eofline": true,
    "indent": [
      true,
      "spaces",
      2
    ],
    "linebreak-style": [
      true,
      "LF"
    ],
    "max-line-length": [
      true,
      {
        "limit": 120,
        "ignore-pattern": "^import |^export {(.*?)}"
      }
    ],
    "no-default-export": true,
    "no-duplicate-imports": true,
    "no-require-imports": true,
    "prefer-const": true,
    "object-literal-sort-keys": [
      true,
      "ignore-case",
      "match-declaration-order"
    ],
    "align": true,
    "array-type": [
      true,
      "generic"
    ],
    "arrow-return-shorthand": true,
    "binary-expression-operand-order": true,
    "class-name": true,
    "comment-format": [
      true,
      "check-space",
      "check-uppercase"
    ],
    "import-spacing": true,
    "interface-name": [
      true,
      "always-prefix"
    ],
    "interface-over-type-literal": true,
    "newline-before-return": true,
    "new-parens": true,
    "no-boolean-literal-compare": true,
    "no-trailing-whitespace": true,
    "no-unnecessary-callback-wrapper": false,
    "no-unnecessary-initializer": true,
    "no-unnecessary-qualifier": true,
    "number-literal-format": true,
    "trailing-comma": false,
    "object-literal-key-quotes": [
      true,
      "consistent-as-needed"
    ],
    "one-line": true,
    "one-variable-per-declaration": [
      true,
      "ignore-for-loop"
    ],
    "prefer-function-over-method": true,
    "prefer-method-signature": true,
    "prefer-switch": true,
    "quotemark": [
      true,
      "single",
      "avoid-escape"
    ],
    "return-undefined": true,
    "semicolon": [true, "never"],
    "space-before-function-paren": true,
    "space-within-parens": false,
    "arrow-parens": true,
    "switch-final-break": true,
    "variable-name": [
      true,
      "ban-keywords",
      "check-format"
    ],
    "whitespace": [
      true,
      "check-branch",
      "check-decl",
      "check-operator",
      "check-module",
      "check-separator",
      "check-rest-spread",
      "check-type",
      "check-typecast",
      "check-type-operator",
      "check-preblock"
      ]


  },
  "rulesDirectory": []
}